^C:\USERS\SEBAS\ONEDRIVE\DOCUMENTS\SDEV230FINALPROJECT\TICTACTOE\TICTACTOE\TICTACTOE.CPP
C:\USERS\SEBAS\ONEDRIVE\DOCUMENTS\SDEV230FINALPROJECT\TICTACTOE\TICTACTOE\DEBUG\VC142.PDB
C:\USERS\SEBAS\ONEDRIVE\DOCUMENTS\SDEV230FINALPROJECT\TICTACTOE\TICTACTOE\DEBUG\VC142.IDB
C:\USERS\SEBAS\ONEDRIVE\DOCUMENTS\SDEV230FINALPROJECT\TICTACTOE\TICTACTOE\DEBUG\TICTACTOE.OBJ
